…
10. Interpret each of the estimated parameters from (10) in the context
    of this research question. That is, what do these values represent?

Now we will assess using the testing data set.

- In the code chunk below titled `train-fit-lm`, replace “verbatim” with
  “r” just before the code chunk title and update `data_test` to
  whatever R object you assigned your testing data to above.

``` r
test_aug <- augment(slr_train, new_data = test_data)
test_aug
```

    ## # A tibble: 33 × 125
    ##    .pred .resid  year ISO_code countries  region  pf_rol_procedural pf_rol_civil
    ##    <dbl>  <dbl> <int> <chr>    <chr>      <chr>               <dbl>        <dbl>
    ##  1  6.46 -1.18   2016 DZA      Algeria    Middle…             NA           NA   
    ##  2  5.66  0.451  2016 AGO      Angola     Sub-Sa…             NA           NA   
    ##  3  4.72  1.41   2016 BHR      Bahrain    Middle…             NA           NA   
    ##  4  7.94 -0.506  2016 BLZ      Belize     Latin …              4.75         4.74
    ##  5  6.60  0.609  2016 BOL      Bolivia    Latin …              3.70         3.36
    ##  6  7.13 -0.257  2016 BWA      Botswana   Sub-Sa…              5.33         6.06
    ##  7  8.74  0.412  2016 CAN      Canada     North …              8.62         7.18
    ##  8  8.47 -0.485  2016 CPV      Cape Verde Sub-Sa…             NA           NA   
    ##  9  5.12  0.226  2016 CHN      China      East A…              3.95         5.38
    ## 10  5.12 -1.23   2016 EGY      Egypt      Middle…              2.95         3.76
    ## # ℹ 23 more rows
    ## # ℹ 117 more variables: pf_rol_criminal <dbl>, pf_rol <dbl>,
    ## #   pf_ss_homicide <dbl>, pf_ss_disappearances_disap <int>,
    ## #   pf_ss_disappearances_violent <dbl>, pf_ss_disappearances_organized <dbl>,
    ## #   pf_ss_disappearances_fatalities <dbl>, pf_ss_disappearances_injuries <dbl>,
    ## #   pf_ss_disappearances <dbl>, pf_ss_women_fgm <dbl>,
    ## #   pf_ss_women_missing <dbl>, pf_ss_women_inheritance_widows <int>, …
…
In order to do these checks we need access to the fitted (predicted)
values and the residuals. We can use `broom::augment` to calculate
these.

- In the code chunk below titled `augment`, replace “verbatim” with “r”
  just before the code chunk title and update `data_test` to whatever R
  object you assigned your testing data to above.

``` r
train_aug <- augment(slr_train, new_data = test_data)
# Check the augmented data
train_aug
```

    ## # A tibble: 33 × 125
    ##    .pred .resid  year ISO_code countries  region  pf_rol_procedural pf_rol_civil
    ##    <dbl>  <dbl> <int> <chr>    <chr>      <chr>               <dbl>        <dbl>
    ##  1  6.46 -1.18   2016 DZA      Algeria    Middle…             NA           NA   
    ##  2  5.66  0.451  2016 AGO      Angola     Sub-Sa…             NA           NA   
    ##  3  4.72  1.41   2016 BHR      Bahrain    Middle…             NA           NA   
    ##  4  7.94 -0.506  2016 BLZ      Belize     Latin …              4.75         4.74
    ##  5  6.60  0.609  2016 BOL      Bolivia    Latin …              3.70         3.36
    ##  6  7.13 -0.257  2016 BWA      Botswana   Sub-Sa…              5.33         6.06
    ##  7  8.74  0.412  2016 CAN      Canada     North …              8.62         7.18
    ##  8  8.47 -0.485  2016 CPV      Cape Verde Sub-Sa…             NA           NA   
    ##  9  5.12  0.226  2016 CHN      China      East A…              3.95         5.38
    ## 10  5.12 -1.23   2016 EGY      Egypt      Middle…              2.95         3.76
    ## # ℹ 23 more rows
    ## # ℹ 117 more variables: pf_rol_criminal <dbl>, pf_rol <dbl>,
    ## #   pf_ss_homicide <dbl>, pf_ss_disappearances_disap <int>,
    ## #   pf_ss_disappearances_violent <dbl>, pf_ss_disappearances_organized <dbl>,
    ## #   pf_ss_disappearances_fatalities <dbl>, pf_ss_disappearances_injuries <dbl>,
    ## #   pf_ss_disappearances <dbl>, pf_ss_women_fgm <dbl>,
    ## #   pf_ss_women_missing <dbl>, pf_ss_women_inheritance_widows <int>, …
…
